data = read.csv("data.csv")
data = read.csv("constant.csv")
cols <- c("black", "blue", "red", "brown")#
p = ggplot(data, aes(d, value, colour = L1)) + #
	geom_line() +#
	scale_colour_manual(values = cols, labels=c("P+Q","upper bound","lower bound","Pinsker")) +#
	scale_y_continuous(limits=c(0,6)) + scale_x_continuous(limits=c(1.3,3.6)) +#
	theme(legend.title=element_blank()) +#
	xlab("Quantization level d") + ylab("Leading constant value")
library(ggplot2)
p = ggplot(data, aes(d, value, colour = L1)) + #
	geom_line() +#
	scale_colour_manual(values = cols, labels=c("P+Q","upper bound","lower bound","Pinsker")) +#
	scale_y_continuous(limits=c(0,6)) + scale_x_continuous(limits=c(1.3,3.6)) +#
	theme(legend.title=element_blank()) +#
	xlab("Quantization level d") + ylab("Leading constant value")
print(p)
pdf("constant.pdf",height=4,width=8)#
print(p)#
dev.off()
data = read.csv("constant.csv")
m = 2 #
Q = 1#
dx = 1e-3#
xmax = 50#
x = seq(dx,xmax,dx)#
alphas = seq(0.005,10,0.005)#
ks = seq(0.2,5,0.05)#
record = record = matrix(0,0,5)#
count = 1#
for (k in ks) {#
	alphas = alphas[alphas>3/2.5*(k-0.5)]#
	for (alpha in alphas) {#
		zz = k*x^(2*m)#
		a = zz#
		b = 2*zz-alpha#
		c = zz-3*alpha-1#
		d = -2*alpha#
		A = b*c/(6*a^2)-b^3/(27*a^3)-d/(2*a)#
		B = c/(3*a)-b^2/(9*a^2)#
		C = A/((-B)^(3/2))#
		C[C>1]=1#
		r = -b/(3*a)+2*sqrt(-B)*cos(acos(C)/3)#
		r[is.na(r)] = 0#
		q = which(cumsum(x^(2*m)*r*dx)>Q)[1]#
		r = r[1:q]#
		x0 = x[q]#
		if (r[q]^2/(r[q]+1)>=alpha) {#
			new = numeric(5)#
			new[1] = x0#
			new[2] = k#
			new[3] = alpha#
			new[4] = sum(2*log(r)-log(r+1))*dx/2-x0*log(alpha)/2#
			new[5] = sum(r/(r+1))*dx+x0*alpha#
			record = rbind(record,new)#
			break#
		}#
	}#
	count = count+1#
	print(count)#
}
constant = data.frame(d=record[,4],const=record[,5])
upper = data.frame(d=seq(1.3,4.7,0.01),const=m^(2*m)*seq(1.3,4.7,0.01)^(-2*m)+(2*m+1)^(1/(2*m+1))*(m/(m+1))^(2*m/(2*m+1)))
lower = data.frame(d=seq(1.3,4.7,0.01),const=m^(2*m)*seq(1.3,4.7,0.01)^(-2*m))
pinsker = data.frame(d=seq(1.3,4.7,0.01),const=rep((2*m+1)^(1/(2*m+1))*(m/(m+1))^(2*m/(2*m+1)),length(seq(1.3,4.7,0.01))))
data <- melt(list(df1 = constant, df2 = upper, df3 = lower, df4 = pinsker), id.vars = "d")
library(reshape)
data <- melt(list(df1 = constant, df2 = upper, df3 = lower, df4 = pinsker), id.vars = "d")
cols <- c("black", "blue", "red", "brown")
p = ggplot(data, aes(d, value, colour = L1)) + #
	geom_line() +#
	scale_colour_manual(values = cols, labels=c("P+Q","upper bound","lower bound","Pinsker")) +#
	scale_y_continuous(limits=c(0,6)) + scale_x_continuous(limits=c(1.3,3.6)) +#
	theme(legend.title=element_blank()) +#
	xlab("Quantization level d") + ylab("Leading constant value")
library(ggplot2)
p = ggplot(data, aes(d, value, colour = L1)) + #
	geom_line() +#
	scale_colour_manual(values = cols, labels=c("P+Q","upper bound","lower bound","Pinsker")) +#
	scale_y_continuous(limits=c(0,6)) + scale_x_continuous(limits=c(1.3,3.6)) +#
	theme(legend.title=element_blank()) +#
	xlab("Quantization level d") + ylab("Leading constant value")
print(p)
write.csv(data,"constant.csv")
data = read.csv("constant.csv")
cols <- c("black", "blue", "red", "brown")
p = ggplot(data, aes(d, value, colour = L1)) + #
	geom_line() +#
	scale_colour_manual(values = cols, labels=c("P+Q","upper bound","lower bound","Pinsker")) +#
	scale_y_continuous(limits=c(0,6)) + scale_x_continuous(limits=c(1.3,3.6)) +#
	theme(legend.title=element_blank()) +#
	xlab("Quantization level d") + ylab("Leading constant value")
print(p)
pdf("constant.pdf",height=4,width=8)
print(p)
dev.off()
lambda.func <- function(m) {#
	return((m/(m+1)/(2*m+1))^(1/(2*m+1)))#
}#
sigma2.func <- function(x,lambda=lambda.func(m),m) {#
	return(sapply(x,function(x){return(((lambda*x)^(-m)-1)*((lambda*x)^(-m)-1>0))}))#
}#
c.func <- function(x,lambda=lambda.func(m),m) {#
	return(sapply(x,function(x){return((1-(lambda*x)^m)*((lambda*x)^(-m)-1>0))}))#
}#
pm.func <- function(m) {#
	return((m/(m+1))^(2*m/(2*m+1))*(2*m+1)^(1/(2*m+1)))#
}#
sm.func <- function(x,m,lambda=lambda.func(m),dx=0.0001) {#
	y = seq(0,x,dx) #
	return(m*(sum(1/(1-(lambda*y)^m)*dx)-x/2))#
}#
qm.func <- function(x,m,lambda=lambda.func(m)) {#
	return(1/lambda*(m/(m-1)*(lambda*x)^(-m+1)+m/(m+1)*(lambda*x)^(m+1)-2*m^2/(m^2-1)))#
}#
#
m = 2#
lambda = lambda.func(m)#
pm = pm.func(m)#
#
dx = 0.0001#
x0 = 0.1/lambda#
x = seq(x0,1/lambda,dx)#
sigma2 = sigma2.func(x,lambda,m)#
c = c.func(x,lambda,m)#
sum(c^2*(1+sigma2)*dx)#
1/lambda*(2*m^2/(1-m^2))-x0*((lambda*x0)^(-m)/(1-m)-2+(lambda*x0)^m/(m+1))#
#
dx = 0.0001#
x0 = 0.2/lambda#
x = seq(dx,1/lambda,dx)#
sigma2 = sigma2.func(x,lambda,m)#
sigma2 = ifelse(x>x0,sigma2,max(sigma2[x>x0]))#
c = c.func(x,lambda,m)#
c = ifelse(x>x0,c,max(c[x>x0]))#
sum(c^2*(1+sigma2)*dx)#
1/lambda*(m/(m-1)*(lambda*x0)^(-m+1)+m/(m+1)*(lambda*x0)^(m+1)-2*m^2/(m^2-1))#
#
dx = 0.0001#
x0 = 0.2/lambda#
x = seq(dx,x0,dx)#
sigma2 = sigma2.func(x,lambda,m)#
c = c.func(x,lambda,m)#
sigma20 = sigma2.func(x0,lambda,m)#
c0 = c.func(x0,lambda,m)#
sum((log(c^2*(1+sigma2))-log(c0^2*(1+sigma20)))*dx)#
2*m*sum(1/(1-(lambda*x)^m)*dx)-m*x0#
#
dx = 0.0001#
x0 = 0.99/lambda#
x = seq(dx,x0,dx)#
sm = sapply(x,function(x){return(sm.func(x,m))})#
qm = sapply(x,function(x){return(qm.func(x,m))})
data
lower
lower2 = data.frame(d=sm,const=qm+(2*m+1)^(1/(2*m+1))*(m/(m+1))^(2*m/(2*m+1)))
data <- melt(list(df1 = constant, df2 = upper, df3 = lower, df4 = lower2, df5 = pinsker), id.vars = "d")
cols <- c("black", "blue", "red", "brown", "gray")
p = ggplot(data, aes(d, value, colour = L1)) + #
	geom_line() +#
	scale_colour_manual(values = cols, labels=c("P+Q","upper bound","lower bound","Pinsker")) +#
	scale_y_continuous(limits=c(0,6)) + scale_x_continuous(limits=c(1.3,3.6)) +#
	theme(legend.title=element_blank()) +#
	xlab("Quantization level d") + ylab("Leading constant value")
print(p)
dx = 1e-3
ds = seq(1.3,4.6,0.1)
x0 = d/m
d = 2
d
x0 = d/m
x = seq(dx,x0,dx)
r = m/d/x^(2*m)
sum(r/(1+r)*dx)
lower3 = data.frame(d = ds, const = numeric(length(ds)))
dx = 1e-3#
ds = seq(1.3,4.6,0.1)#
lower3 = data.frame(d = ds, const = numeric(length(ds)))#
#
for (i in 1:length(ds)) {d#
	d = ds[i]#
	x0 = d/m#
	x = seq(dx,x0,dx)#
	r = m/d/x^(2*m)#
	lower3[i,2] = sum(r/(1+r)*dx)+m^(2*m)*d^(-2*m)#
}
lower3
plot(lower3[,1],lower3[,2])
plot(lower3[,1],lower3[,2],"l")
dx = 1e-3#
ds = seq(1.3,4.6,0.01)#
lower3 = data.frame(d = ds, const = numeric(length(ds)))#
#
for (i in 1:length(ds)) {d#
	d = ds[i]#
	x0 = d/m#
	x = seq(dx,x0,dx)#
	r = m/d/x^(2*m)#
	lower3[i,2] = sum(r/(1+r)*dx)+m^(2*m)*d^(-2*m)#
}
plot(lower3[,1],lower3[,2],"l")
data <- melt(list(df1 = constant, df2 = upper, df3 = lower, df4 = lower2, df5 = lower3, df6 = pinsker), id.vars = "d")
cols <- c("black", "blue", "red", "brown", "green", "gray")
p = ggplot(data, aes(d, value, colour = L1)) + #
	geom_line() +#
	scale_colour_manual(values = cols, labels=c("P+Q","upper bound","lower bound 1","lower bound 2","lower bound 3","Pinsker")) +#
	scale_y_continuous(limits=c(0,6)) + scale_x_continuous(limits=c(1.3,3.6)) +#
	theme(legend.title=element_blank()) +#
	xlab("Quantization level d") + ylab("Leading constant value")
print(p)
r
sum(r*x^(2*m)*dx)
r^2/(r+1)
,
m
d
x0
r[length(r)]^2/(r[length(r)]+1)
eta = r[length(r)]^2/(r[length(r)]+1)
eta*x0
dx = 1e-3#
x0s = seq(1,10,0.01)#
ds = seq(1.3,4.6,0.01)#
lower3 = data.frame(x0 = x0s, d = ds, const = numeric(length(ds)))#
#
for (i in 1:length(x0s)) {#
	x0 = x0s[i]#
	x = seq(dx,x0,dx)#
	r = 1/x0/x^(2*m)#
	eta = r[length(r)]^2/(r[length(r)]+1)#
	lower3$d[i] = sum(log(r)-log(r+1)/2-log(eta))#
	lower3$const[i] = sum(r/(1+r)*dx)+x0*eta#
}
dx = 1e-3#
x0s = seq(1,10,0.01)#
ds = seq(1.3,4.6,0.01)#
lower3 = data.frame(x0 = x0s, d = numeric(length(x0s)), const = numeric(length(x0s)))#
#
for (i in 1:length(x0s)) {#
	x0 = x0s[i]#
	x = seq(dx,x0,dx)#
	r = 1/x0/x^(2*m)#
	eta = r[length(r)]^2/(r[length(r)]+1)#
	lower3$d[i] = sum(log(r)-log(r+1)/2-log(eta))#
	lower3$const[i] = sum(r/(1+r)*dx)+x0*eta#
}
plot(lower3$d,lower3$const)
plot(lower3$d,lower3$const,"l")
lower3
dx = 1e-3#
x0s = seq(0.1,1,0.01)#
ds = seq(1.3,4.6,0.01)#
lower3 = data.frame(x0 = x0s, d = numeric(length(x0s)), const = numeric(length(x0s)))#
#
for (i in 1:length(x0s)) {#
	x0 = x0s[i]#
	x = seq(dx,x0,dx)#
	r = 1/x0/x^(2*m)#
	eta = r[length(r)]^2/(r[length(r)]+1)#
	lower3$d[i] = sum(log(r)-log(r+1)/2-log(eta))#
	lower3$const[i] = sum(r/(1+r)*dx)+x0*eta#
}
lower3
plot(lower3$d,lower3$const,"l")
dx = 1e-3#
x0s = seq(0.45,1,0.01)#
ds = seq(1.3,4.6,0.01)#
lower3 = data.frame(x0 = x0s, d = numeric(length(x0s)), const = numeric(length(x0s)))#
#
for (i in 1:length(x0s)) {#
	x0 = x0s[i]#
	x = seq(dx,x0,dx)#
	r = 1/x0/x^(2*m)#
	eta = r[length(r)]^2/(r[length(r)]+1)#
	lower3$d[i] = sum(log(r)-log(r+1)/2-log(eta))#
	lower3$const[i] = sum(r/(1+r)*dx)+x0*eta#
}
plot(lower3$d,lower3$const,"l")
dx = 1e-3#
x0s = seq(0.5,0.7,0.01)#
ds = seq(1.3,4.6,0.01)#
lower3 = data.frame(x0 = x0s, d = numeric(length(x0s)), const = numeric(length(x0s)))#
#
for (i in 1:length(x0s)) {#
	x0 = x0s[i]#
	x = seq(dx,x0,dx)#
	r = 1/x0/x^(2*m)#
	eta = r[length(r)]^2/(r[length(r)]+1)#
	lower3$d[i] = sum(log(r)-log(r+1)/2-log(eta))#
	lower3$const[i] = sum(r/(1+r)*dx)+x0*eta#
}
plot(lower3$d,lower3$const,"l")
dx = 1e-3#
x0s = seq(0.45,0.7,0.01)#
ds = seq(1.3,4.6,0.01)#
lower3 = data.frame(x0 = x0s, d = numeric(length(x0s)), const = numeric(length(x0s)))#
#
for (i in 1:length(x0s)) {#
	x0 = x0s[i]#
	x = seq(dx,x0,dx)#
	r = 1/x0/x^(2*m)#
	eta = r[length(r)]^2/(r[length(r)]+1)#
	lower3$d[i] = sum(log(r)-log(r+1)/2-log(eta))#
	lower3$const[i] = sum(r/(1+r)*dx)+x0*eta#
}
plot(lower3$d,lower3$const,"l")
dx = 1e-3#
x0s = seq(0.45,0.7,0.01)#
ds = seq(1.3,4.6,0.01)#
lower3 = data.frame(x0 = x0s, d = numeric(length(x0s)), const = numeric(length(x0s)))#
#
for (i in 1:length(x0s)) {#
	x0 = x0s[i]#
	x = seq(dx,x0,dx)#
	r = 1/x0/x^(2*m)#
	eta = r[length(r)]^2/(r[length(r)]+1)#
	lower3$d[i] = sum(log(r)-log(r+1)/2-log(eta)*dx)#
	lower3$const[i] = sum(r/(1+r)*dx)+x0*eta#
}
plot(lower3$d,lower3$const,"l")
dx = 1e-3#
x0s = seq(0.45,0.7,0.01)#
ds = seq(1.3,4.6,0.01)#
lower3 = data.frame(x0 = x0s, d = numeric(length(x0s)), const = numeric(length(x0s)))#
#
for (i in 1:length(x0s)) {#
	x0 = x0s[i]#
	x = seq(dx,x0,dx)#
	r = 1/x0/x^(2*m)#
	eta = r[length(r)]^2/(r[length(r)]+1)#
	lower3$d[i] = sum(log(r)-log(r+1)/2-log(eta)*dx)#
	lower3$const[i] = sum(r/(1+r)*dx)+x0*eta#
}
plot(lower3$d,lower3$const,"l")
dx = 1e-3#
x0s = seq(0.45,0.7,0.01)#
ds = seq(1.3,4.6,0.01)#
lower3 = data.frame(x0 = x0s, d = numeric(length(x0s)), const = numeric(length(x0s)))#
#
for (i in 1:length(x0s)) {#
	x0 = x0s[i]#
	x = seq(dx,x0,dx)#
	r = 1/x0/x^(2*m)#
	eta = r[length(r)]^2/(r[length(r)]+1)#
	lower3$d[i] = sum(log(r)-log(r+1)/2-log(eta))*dx#
	lower3$const[i] = sum(r/(1+r)*dx)+x0*eta#
}
plot(lower3$d,lower3$const,"l")
dx = 1e-3#
x0s = seq(0.45,1,0.01)#
ds = seq(1.3,4.6,0.01)#
lower3 = data.frame(x0 = x0s, d = numeric(length(x0s)), const = numeric(length(x0s)))#
#
for (i in 1:length(x0s)) {#
	x0 = x0s[i]#
	x = seq(dx,x0,dx)#
	r = 1/x0/x^(2*m)#
	eta = r[length(r)]^2/(r[length(r)]+1)#
	lower3$d[i] = sum(log(r)-log(r+1)/2-log(eta))*dx#
	lower3$const[i] = sum(r/(1+r)*dx)+x0*eta#
}
plot(lower3$d,lower3$const,"l")
dx = 1e-3#
x0s = seq(0.45,2,0.01)#
ds = seq(1.3,4.6,0.01)#
lower3 = data.frame(x0 = x0s, d = numeric(length(x0s)), const = numeric(length(x0s)))#
#
for (i in 1:length(x0s)) {#
	x0 = x0s[i]#
	x = seq(dx,x0,dx)#
	r = 1/x0/x^(2*m)#
	eta = r[length(r)]^2/(r[length(r)]+1)#
	lower3$d[i] = sum(log(r)-log(r+1)/2-log(eta))*dx#
	lower3$const[i] = sum(r/(1+r)*dx)+x0*eta#
}
dx = 1e-3#
x0s = seq(0.45,2,0.01)#
ds = seq(1.3,4.6,0.01)#
lower3 = data.frame(x0 = x0s, d = numeric(length(x0s)), const = numeric(length(x0s)))#
#
for (i in 1:length(x0s)) {#
	x0 = x0s[i]#
	x = seq(dx,x0,dx)#
	r = 1/x0/x^(2*m)#
	eta = r[length(r)]^2/(r[length(r)]+1)#
	lower3$d[i] = sum(log(r)-log(r+1)/2-log(eta))*dx#
	lower3$const[i] = sum(r/(1+r)*dx)+x0*eta#
}#
plot(lower3$d,lower3$const,"l")
dx = 1e-3#
x0s = seq(0.45,1.5,0.01)#
ds = seq(1.3,4.6,0.01)#
lower3 = data.frame(x0 = x0s, d = numeric(length(x0s)), const = numeric(length(x0s)))#
#
for (i in 1:length(x0s)) {#
	x0 = x0s[i]#
	x = seq(dx,x0,dx)#
	r = 1/x0/x^(2*m)#
	eta = r[length(r)]^2/(r[length(r)]+1)#
	lower3$d[i] = sum(log(r)-log(r+1)/2-log(eta))*dx#
	lower3$const[i] = sum(r/(1+r)*dx)+x0*eta#
}#
plot(lower3$d,lower3$const,"l")
dx = 1e-3#
x0s = seq(0.45,1.3,0.01)#
ds = seq(1.3,4.6,0.01)#
lower3 = data.frame(x0 = x0s, d = numeric(length(x0s)), const = numeric(length(x0s)))#
#
for (i in 1:length(x0s)) {#
	x0 = x0s[i]#
	x = seq(dx,x0,dx)#
	r = 1/x0/x^(2*m)#
	eta = r[length(r)]^2/(r[length(r)]+1)#
	lower3$d[i] = sum(log(r)-log(r+1)/2-log(eta))*dx#
	lower3$const[i] = sum(r/(1+r)*dx)+x0*eta#
}#
plot(lower3$d,lower3$const,"l")
data <- melt(list(df1 = constant, df2 = upper, df3 = lower, df4 = lower2, df5 = lower3[,2:3], df6 = pinsker), id.vars = "d")
cols <- c("black", "blue", "red", "brown", "green", "gray")
data <- melt(list(df1 = constant, df2 = upper, df3 = lower2, df4 = lower3[,2:3], df5 = pinsker), id.vars = "d")#
cols <- c("black", "blue", "red", "brown", "gray")#
#
p = ggplot(data, aes(d, value, colour = L1)) + #
	geom_line() +#
	scale_colour_manual(values = cols, labels=c("P+Q","upper bound","lower bound 1","lower bound 2","Pinsker")) +#
	scale_y_continuous(limits=c(0,6)) + scale_x_continuous(limits=c(1.3,3.6)) +#
	theme(legend.title=element_blank()) +#
	xlab("Quantization level d") + ylab("Leading constant value")
print(p)
plot(lower3$d,lower3$const,"l")
dx = 1e-3#
x0s = seq(0.45,1.3,0.01)#
lower3 = data.frame(x0 = x0s, d = numeric(length(x0s)), const = numeric(length(x0s)))#
#
for (i in 1:length(x0s)) {#
	x0 = x0s[i]#
	x = seq(dx,x0,dx)#
	r = 1/x0/x^(2*m)#
	eta = r[length(r)]^2/(r[length(r)]+1)#
	lower3$d[i] = sum(log(r)-log(r+1)/2-log(eta)/2)*dx#
	lower3$const[i] = sum(r/(1+r)*dx)+x0*eta#
}#
plot(lower3$d,lower3$const,"l")
data <- melt(list(df1 = constant, df2 = upper, df3 = lower2, df4 = lower3[,2:3], df5 = pinsker), id.vars = "d")#
cols <- c("black", "blue", "red", "brown", "gray")#
#
p = ggplot(data, aes(d, value, colour = L1)) + #
	geom_line() +#
	scale_colour_manual(values = cols, labels=c("P+Q","upper bound","lower bound 1","lower bound 2","Pinsker")) +#
	scale_y_continuous(limits=c(0,6)) + scale_x_continuous(limits=c(1.3,3.6)) +#
	theme(legend.title=element_blank()) +#
	xlab("Quantization level d") + ylab("Leading constant value")
print(p)
dx = 1e-3#
x0s = seq(0.45,1.3,0.001)#
lower3 = data.frame(x0 = x0s, d = numeric(length(x0s)), const = numeric(length(x0s)))#
#
for (i in 1:length(x0s)) {#
	x0 = x0s[i]#
	x = seq(dx,x0,dx)#
	r = 1/x0/x^(2*m)#
	eta = r[length(r)]^2/(r[length(r)]+1)#
	lower3$d[i] = sum(log(r)-log(r+1)/2-log(eta)/2)*dx#
	lower3$const[i] = sum(r/(1+r)*dx)+x0*eta#
}#
plot(lower3$d,lower3$const,"l")
data <- melt(list(df1 = constant, df2 = upper, df3 = lower2, df4 = lower3[,2:3], df5 = pinsker), id.vars = "d")#
cols <- c("black", "blue", "red", "brown", "gray")#
#
p = ggplot(data, aes(d, value, colour = L1)) + #
	geom_line() +#
	scale_colour_manual(values = cols, labels=c("P+Q","upper bound","lower bound 1","lower bound 2","Pinsker")) +#
	scale_y_continuous(limits=c(0,6)) + scale_x_continuous(limits=c(1.3,3.6)) +#
	theme(legend.title=element_blank()) +#
	xlab("Quantization level d") + ylab("Leading constant value")
print(p)
plot(lower3$d,lower3$const,"l")
dx = 1e-3#
x0s = seq(0.45,1.5,0.001)#
lower3 = data.frame(x0 = x0s, d = numeric(length(x0s)), const = numeric(length(x0s)))#
#
for (i in 1:length(x0s)) {#
	x0 = x0s[i]#
	x = seq(dx,x0,dx)#
	r = 1/x0/x^(2*m)#
	eta = r[length(r)]^2/(r[length(r)]+1)#
	lower3$d[i] = sum(log(r)-log(r+1)/2-log(eta)/2)*dx#
	lower3$const[i] = sum(r/(1+r)*dx)+x0*eta#
}#
plot(lower3$d,lower3$const,"l")
data <- melt(list(df1 = constant, df2 = upper, df3 = lower2, df4 = lower3[,2:3], df5 = pinsker), id.vars = "d")#
cols <- c("black", "blue", "red", "brown", "gray")#
#
p = ggplot(data, aes(d, value, colour = L1)) + #
	geom_line() +#
	scale_colour_manual(values = cols, labels=c("P+Q","upper bound","lower bound 1","lower bound 2","Pinsker")) +#
	scale_y_continuous(limits=c(0,6)) + scale_x_continuous(limits=c(1.3,3.6)) +#
	theme(legend.title=element_blank()) +#
	xlab("Quantization level d") + ylab("Leading constant value")
print(p)
data <- melt(list(df1 = constant, df2 = upper, df3 = lower2, df4 = lower3[,2:3], df5 = pinsker), id.vars = "d")#
cols <- c("black", "brown", "red", "blue", "gray")#
#
p = ggplot(data, aes(d, value, colour = L1)) + #
	geom_line() +#
	scale_colour_manual(values = cols, labels=c("P+Q","upper bound","lower bound 1","lower bound 2","Pinsker")) +#
	scale_y_continuous(limits=c(0,6)) + scale_x_continuous(limits=c(1.3,3.6)) +#
	theme(legend.title=element_blank()) +#
	xlab("Quantization level d") + ylab("Leading constant value")
print(p)
write.csv(data,"constant.csv")
data <- melt(list(df1 = constant, df2 = upper, df3 = lower2, df4 = lower3[,2:3], df5 = pinsker), id.vars = "d")#
cols <- c("black", "brown", "red", "blue", "gray")#
#
p = ggplot(data, aes(d, value, colour = L1)) + #
	geom_line() +#
	scale_colour_manual(values = cols, labels=c("P+Q","upper bound","lower bound 1","lower bound 2","Pinsker")) +#
	scale_y_continuous(limits=c(0,6)) + scale_x_continuous(limits=c(1.3,3.6)) +#
	theme(legend.title=element_blank()) +#
	xlab("Quantization level d") + ylab("Leading constant value")#
pdf("constant.pdf",height=4,width=8)#
print(p)#
dev.off()
library(ggplot2)#
data = read.csv("constant.csv")#
cols <- c("black", "brown", "red", "blue", "gray")#
p = ggplot(data, aes(d, value, colour = L1)) + #
	geom_line() +#
	scale_colour_manual(values = cols, labels=c("P+Q","upper bound","lower bound 1","lower bound 2","Pinsker")) +#
	scale_y_continuous(limits=c(0,6)) + scale_x_continuous(limits=c(1.3,3.6)) +#
	theme(legend.title=element_blank()) +#
	xlab("Quantization level d") + ylab("Leading constant value")#
#
pdf("constant.pdf",height=4,width=8)#
print(p)#
dev.off()
library(ggplot2)#
data = read.csv("constant.csv")#
cols <- c("black", "brown", "red", "blue", "gray")#
p = ggplot(data, aes(d, value, colour = L1)) + #
	geom_line() +#
	scale_colour_manual(values = cols, labels=c("P+Q","upper bound","lower bound 1","lower bound 2","Pinsker")) +#
	scale_y_continuous(limits=c(0,6)) + scale_x_continuous(limits=c(1.3,3.6)) +#
	theme(legend.title=element_blank()) +#
	xlab("Quantization level d") + ylab("Leading constant value")#
#
pdf("constant2.pdf",height=8,width=4)#
print(p)#
dev.off()
library(ggplot2)#
data = read.csv("constant.csv")#
cols <- c("black", "brown", "red", "blue", "gray")#
p = ggplot(data, aes(d, value, colour = L1)) + #
	geom_line() +#
	scale_colour_manual(values = cols, labels=c("P+Q","upper bound","lower bound 1","lower bound 2","Pinsker")) +#
	scale_y_continuous(limits=c(0,6)) + scale_x_continuous(limits=c(1.3,3.6)) +#
	theme(legend.title=element_blank()) +#
	xlab("Quantization level d") + ylab("Leading constant value")#
#
pdf("constant2.pdf",height=8,width=6)#
print(p)#
dev.off()
library(ggplot2)#
data = read.csv("constant.csv")#
cols <- c("black", "brown", "red", "blue", "gray")#
p = ggplot(data, aes(d, value, colour = L1)) + #
	geom_line() +#
	scale_colour_manual(values = cols, labels=c("P+Q","upper bound","lower bound 1","lower bound 2","Pinsker")) +#
	scale_y_continuous(limits=c(0,6)) + scale_x_continuous(limits=c(1.3,3.6)) +#
	theme(legend.title=element_blank()) +#
	xlab("Quantization level d") + ylab("Leading constant value")#
#
pdf("constant2.pdf",height=8,width=10)#
print(p)#
dev.off()
library(ggplot2)#
data = read.csv("constant.csv")#
cols <- c("black", "brown", "red", "blue", "gray")#
p = ggplot(data, aes(d, value, colour = L1)) + #
	geom_line() +#
	scale_colour_manual(values = cols, labels=c("P+Q","upper bound","lower bound 1","lower bound 2","Pinsker")) +#
	scale_y_continuous(limits=c(0,6)) + scale_x_continuous(limits=c(1.3,3.6)) +#
	theme(legend.title=element_blank()) +#
	xlab("Quantization level d") + ylab("Leading constant value")#
#
pdf("constant2.pdf",height=8,width=8)#
print(p)#
dev.off()
library(ggplot2)#
data = read.csv("constant.csv")#
cols <- c("black", "brown", "red", "blue", "gray")#
p = ggplot(data, aes(d, value, colour = L1)) + #
	geom_line() +#
	scale_colour_manual(values = cols, labels=c("P+Q","upper bound","lower bound 1","lower bound 2","Pinsker")) +#
	scale_y_log10(limits=c(0,6)) + scale_x_continuous(limits=c(1.3,3.6)) +#
	theme(legend.title=element_blank()) +#
	xlab("Quantization level d") + ylab("Leading constant value")#
#
pdf("constant2.pdf",height=8,width=10)#
print(p)#
dev.off()
library(ggplot2)#
data = read.csv("constant.csv")#
cols <- c("black", "brown", "red", "blue", "gray")#
p = ggplot(data, aes(d, value, colour = L1)) + #
	geom_line() +#
	scale_colour_manual(values = cols, labels=c("P+Q","upper bound","lower bound 1","lower bound 2","Pinsker")) +#
	scale_y_log10(limits=c(0.1,6)) + scale_x_continuous(limits=c(1.3,3.6)) +#
	theme(legend.title=element_blank()) +#
	xlab("Quantization level d") + ylab("Leading constant value")#
#
pdf("constant2.pdf",height=8,width=10)#
print(p)#
dev.off()
library(ggplot2)#
data = read.csv("constant.csv")#
cols <- c("black", "brown", "red", "blue", "gray")#
p = ggplot(data, aes(d, value, colour = L1)) + #
	geom_line() +#
	scale_colour_manual(values = cols, labels=c("P+Q","upper bound","lower bound 1","lower bound 2","Pinsker")) +#
	scale_y_log10(limits=c(0.9,6)) + scale_x_continuous(limits=c(1.3,3.6)) +#
	theme(legend.title=element_blank()) +#
	xlab("Quantization level d") + ylab("Leading constant value")#
#
pdf("constant2.pdf",height=8,width=10)#
print(p)#
dev.off()
head(data)
data$value=log(data$value)
library(ggplot2)#
data = read.csv("constant.csv")#
cols <- c("black", "brown", "red", "blue", "gray")#
p = ggplot(data, aes(d, value, colour = L1)) + #
	geom_line() +#
	scale_colour_manual(values = cols, labels=c("P+Q","upper bound","lower bound 1","lower bound 2","Pinsker")) +#
	scale_y_continuous(limits=c(0,log(6))) + scale_x_continuous(limits=c(1.3,3.6)) +#
	theme(legend.title=element_blank()) +#
	xlab("Quantization level d") + ylab("Leading constant value")#
#
pdf("constant2.pdf",height=8,width=8)#
print(p)#
dev.off()
head(data)
data$value=log(data$value)
cols <- c("black", "brown", "red", "blue", "gray")#
p = ggplot(data, aes(d, value, colour = L1)) + #
	geom_line() +#
	scale_colour_manual(values = cols, labels=c("P+Q","upper bound","lower bound 1","lower bound 2","Pinsker")) +#
	scale_y_continuous(limits=c(0,6)) + scale_x_continuous(limits=c(1.3,3.6)) +#
	theme(legend.title=element_blank()) +#
	xlab("Quantization level d") + ylab("Leading constant value")#
print(p)
cols <- c("black", "brown", "red", "blue", "gray")#
p = ggplot(data, aes(d, value, colour = L1)) + #
	geom_line() +#
	scale_colour_manual(values = cols, labels=c("P+Q","upper bound","lower bound 1","lower bound 2","Pinsker")) +#
	scale_y_continuous(limits=c(0,2)) + scale_x_continuous(limits=c(1.3,3.6)) +#
	theme(legend.title=element_blank()) +#
	xlab("Quantization level d") + ylab("Leading constant value")#
print(p)#
pdf("constant2.pdf",height=8,width=10)#
print(p)
data$value=log(log(data$value))
cols <- c("black", "brown", "red", "blue", "gray")#
p = ggplot(data, aes(d, value, colour = L1)) + #
	geom_line() +#
	scale_colour_manual(values = cols, labels=c("P+Q","upper bound","lower bound 1","lower bound 2","Pinsker")) +#
	scale_y_continuous(limits=c(0,2)) + scale_x_continuous(limits=c(1.3,3.6)) +#
	theme(legend.title=element_blank()) +#
	xlab("Quantization level d") + ylab("Leading constant value")#
print(p)#
pdf("constant2.pdf",height=8,width=10)#
print(p)
data = read.csv("constant.csv")
libaray(ggplot2)#
library(grid)#
library(scales)
library(ggplot2)#
library(grid)#
library(scales)
library(ggplot2)#
library(grid)#
library(scales)#
#
data = read.csv("constant.csv")#
###################################################################################
###### CUSTOMISATION - Edit these variables to customise ##########################
##################################################################################	#
	# Text/Line/Fill Colours												#######
	colour.1 = "black"		# Text, outside plot area						#######
	colour.2 = "white"		# Fill, outside plot area						#######
	colour.3 = "white"		# Fill, plot area								#######
	colour.5 = "black"		# Text, inside plot area						#######
	colour.6 = "black"		# Outlines										#######
																			#######
	# Line Widths															#######
	lw.r = 1.1618			# Scaling ratio									#######
	lw.1 = 1.5				# Plot area										#######
	lw.2 = lw.1/(lw.r^7)	# Axis ticks									#######
	lw.3 = lw.1/(lw.r^8)	# Legend box									#######
																			#######
	# Font Sizes															#######
	fs.r = 1.1618				# Scaling ratio								#######
	fs.1 = 12					# Axis Labels								#######
	fs.2 = fs.1 * (fs.r^2)		# Axis title								#######
	fs.3 = fs.1 * (fs.r^3)		# Plot title								#######
	fs.4 = fs.1 / (fs.r^2)		# Legend									#######
	fs.5 = fs.1 / (fs.r^4)		# Legend title								#######
																			#######
	# Plot definitions														#######
	ar.1 = 1/1.1618				# Aspect ratio of the plot area				#######
	xlims = c(1.3,4)			# X Limits of the main plot					#######
	ylims = c(0,6)				# Y Limits of the main plot					#######
																			#######
	# Expanded view variables												#######
	zoom = 2					# The zoom level of the expand box			#######
	pad = 1						# Padding between exp box and plot box		#######
	ex.col = "white"			# Fill colour of expand boxes				#######
	ex.alpha = 0				# Turn to zero to turn off any colour		#######
	ex.lin = "black"			# Line colour of expand boxes				#######
	x.expand = c(2.5,3.5)		# Desired expand range (X)					#######
	y.expand = c(0.9, 1.8)		# Desired expand range (y)					#######
	j.expand = "tr"				# Select a corner to place exp box			#######
																			#######
###################################################################################
###################################################################################
###################################################################################
#
###########################################################
# DO NOT EDIT - Computation of expanded box coords ########
###########################################################
if (j.expand == "tr") {								#######
xl = xlims[2]-((x.expand[2]-x.expand[1])*zoom)		#######
xh = xlims[2]										#######
yl = ylims[2]-((y.expand[2]-y.expand[1])*zoom)		#######
yh = ylims[2]										#######
padl = -1											#######
padr = pad											#######
padt = pad											#######
padb = -1											#######
}													#######
													#######
if (j.expand == "bl") {								#######
xl = xlims[1]										#######
xh = xlims[1]+((x.expand[2]-x.expand[1])*zoom)		#######
yl = ylims[1]										#######
yh = ylims[1]+((y.expand[2]-y.expand[1])*zoom)		#######
padl = pad-1										#######
padr = -1											#######
padt = -1											#######
padb = pad-1										#######
}													#######
													#######
if (j.expand == "tl") {								#######
xl = xlims[1]										#######
xh = xlims[1]+((x.expand[2]-x.expand[1])*zoom)		#######
yl = ylims[2]-((y.expand[2]-y.expand[1])*zoom)		#######
yh = ylims[2]										#######
padl = pad-1										#######
padr = -1											#######
padt = pad											#######
padb = -1											#######
}													#######
													#######
if (j.expand == "br") {								#######
xl = xlims[2]-((x.expand[2]-x.expand[1])*zoom)		#######
xh = xlims[2]										#######
yl = ylims[1]										#######
yh = ylims[1]+((y.expand[2]-y.expand[1])*zoom)		#######
padl = -1											#######
padr = pad											#######
padt = -1											#######
padb = pad-1										#######
}													#######
###########################################################
###########################################################
###########################################################
###########################################################
# P1 = Main plot ##########################################
###########################################################
	# Define the plot#
p1 = ggplot(data, aes(d, value, colour = L1)) + #
	geom_line() +#
	scale_colour_manual(values = cols, labels=c("P+Q","upper bound","lower bound 1","lower bound 2","Pinsker")) +#
	scale_y_continuous(limits=c(0,6)) + scale_x_continuous(limits=c(1.3,4)) +#
	theme(legend.title=element_blank()) +#
	xlab("Quantization level d") + ylab("Leading constant value") +#
	# Highlight area for expand box#
	annotate ("rect", 			#IMPORTANT#
		xmin = x.expand[1], 	#IMPORTANT#
		xmax = x.expand[2], 	#IMPORTANT#
		ymin = y.expand[1], 	#IMPORTANT#
		ymax = y.expand[2], 	#IMPORTANT#
		fill = ex.col, 			#IMPORTANT#
		colour = ex.lin,		#IMPORTANT#
		alpha = ex.alpha		#IMPORTANT#
		) 		#
#
###########################################################
# P2 = expanded plot ######################################
###########################################################
#
p2 = ggplot(data, aes(d, (value-1)*2+1, colour = L1)) + #
	geom_line() +#
	scale_colour_manual(values = cols, labels=c("P+Q","upper bound","lower bound 1","lower bound 2","Pinsker")) +	#
	# Customise: Scales#
	coord_cartesian (xlim = x.expand, ylim = y.expand) +				#IMPORTANT#
	scale_x_continuous (name = F) +										#IMPORTANT#
	scale_y_continuous (name = F) +										#IMPORTANT#
	scale_fill_gradient (low = "yellow", high = "red", guide = F) +#
	#IMPORTANT - Appearance customisation#
	theme (#
		# Plot Attributes#
		plot.title = element_text (size= 10),										#IMPORTANT#
		plot.margin = unit (c(padt, padr, padb, padl), "lines"), #T, R, B, L		#IMPORTANT#
		plot.background = element_blank (), 										#IMPORTANT#
		# Panel Attributes	#
		panel.grid.major = element_blank (), 										# Removes major grid#
		panel.grid.minor = element_blank (),  										# Removes minor grid#
#		panel.background = element_rect (fill = ex.col),							#IMPORTANT#
		panel.border = element_rect (colour = ex.lin, fill = F, size = 0.5),		#IMPORTANT	#
		#Legend Attributes		#
		legend.position = "none",											#IMPORTANT#
		# Axis Attributes#
		axis.title.x = element_blank (),	#IMPORTANT#
		axis.title.y = element_blank (), 	#IMPORTANT#
		axis.text.x = element_blank (), 	#IMPORTANT#
		axis.text.y = element_blank (), 	#IMPORTANT#
		axis.ticks = element_blank ()		#IMPORTANT#
		)#
# Turn P2 into a grob that you can place in P1		#
p2 = ggplotGrob (p2)				#IMPORTANT#
#
# Add P2 into P1#
p1 + annotation_custom (grob = p2, xmin = xl, xmax = xh, ymin = yl, ymax = yh)
data
head(data)
names(data)
dim(data)
class(data)
data = read.table("constant.csv")
head(data)
write.csv(data,"constant.csv")
library(ggplot2)#
library(grid)#
library(scales)#
#
data = read.csv("constant.csv")#
###################################################################################
###### CUSTOMISATION - Edit these variables to customise ##########################
##################################################################################	#
	# Text/Line/Fill Colours												#######
	colour.1 = "black"		# Text, outside plot area						#######
	colour.2 = "white"		# Fill, outside plot area						#######
	colour.3 = "white"		# Fill, plot area								#######
	colour.5 = "black"		# Text, inside plot area						#######
	colour.6 = "black"		# Outlines										#######
																			#######
	# Line Widths															#######
	lw.r = 1.1618			# Scaling ratio									#######
	lw.1 = 1.5				# Plot area										#######
	lw.2 = lw.1/(lw.r^7)	# Axis ticks									#######
	lw.3 = lw.1/(lw.r^8)	# Legend box									#######
																			#######
	# Font Sizes															#######
	fs.r = 1.1618				# Scaling ratio								#######
	fs.1 = 12					# Axis Labels								#######
	fs.2 = fs.1 * (fs.r^2)		# Axis title								#######
	fs.3 = fs.1 * (fs.r^3)		# Plot title								#######
	fs.4 = fs.1 / (fs.r^2)		# Legend									#######
	fs.5 = fs.1 / (fs.r^4)		# Legend title								#######
																			#######
	# Plot definitions														#######
	ar.1 = 1/1.1618				# Aspect ratio of the plot area				#######
	xlims = c(1.3,4)			# X Limits of the main plot					#######
	ylims = c(0,6)				# Y Limits of the main plot					#######
																			#######
	# Expanded view variables												#######
	zoom = 2					# The zoom level of the expand box			#######
	pad = 1						# Padding between exp box and plot box		#######
	ex.col = "white"			# Fill colour of expand boxes				#######
	ex.alpha = 0				# Turn to zero to turn off any colour		#######
	ex.lin = "black"			# Line colour of expand boxes				#######
	x.expand = c(2.5,3.5)		# Desired expand range (X)					#######
	y.expand = c(0.9, 1.8)		# Desired expand range (y)					#######
	j.expand = "tr"				# Select a corner to place exp box			#######
																			#######
###################################################################################
###################################################################################
###################################################################################
#
###########################################################
# DO NOT EDIT - Computation of expanded box coords ########
###########################################################
if (j.expand == "tr") {								#######
xl = xlims[2]-((x.expand[2]-x.expand[1])*zoom)		#######
xh = xlims[2]										#######
yl = ylims[2]-((y.expand[2]-y.expand[1])*zoom)		#######
yh = ylims[2]										#######
padl = -1											#######
padr = pad											#######
padt = pad											#######
padb = -1											#######
}													#######
													#######
if (j.expand == "bl") {								#######
xl = xlims[1]										#######
xh = xlims[1]+((x.expand[2]-x.expand[1])*zoom)		#######
yl = ylims[1]										#######
yh = ylims[1]+((y.expand[2]-y.expand[1])*zoom)		#######
padl = pad-1										#######
padr = -1											#######
padt = -1											#######
padb = pad-1										#######
}													#######
													#######
if (j.expand == "tl") {								#######
xl = xlims[1]										#######
xh = xlims[1]+((x.expand[2]-x.expand[1])*zoom)		#######
yl = ylims[2]-((y.expand[2]-y.expand[1])*zoom)		#######
yh = ylims[2]										#######
padl = pad-1										#######
padr = -1											#######
padt = pad											#######
padb = -1											#######
}													#######
													#######
if (j.expand == "br") {								#######
xl = xlims[2]-((x.expand[2]-x.expand[1])*zoom)		#######
xh = xlims[2]										#######
yl = ylims[1]										#######
yh = ylims[1]+((y.expand[2]-y.expand[1])*zoom)		#######
padl = -1											#######
padr = pad											#######
padt = -1											#######
padb = pad-1										#######
}													#######
###########################################################
###########################################################
###########################################################
###########################################################
# P1 = Main plot ##########################################
###########################################################
	# Define the plot#
p1 = ggplot(data, aes(d, value, colour = L1)) + #
	geom_line() +#
	scale_colour_manual(values = cols, labels=c("P+Q","upper bound","lower bound 1","lower bound 2","Pinsker")) +#
	scale_y_continuous(limits=c(0,6)) + scale_x_continuous(limits=c(1.3,4)) +#
	theme(legend.title=element_blank()) +#
	xlab("Quantization level d") + ylab("Leading constant value") +#
	# Highlight area for expand box#
	annotate ("rect", 			#IMPORTANT#
		xmin = x.expand[1], 	#IMPORTANT#
		xmax = x.expand[2], 	#IMPORTANT#
		ymin = y.expand[1], 	#IMPORTANT#
		ymax = y.expand[2], 	#IMPORTANT#
		fill = ex.col, 			#IMPORTANT#
		colour = ex.lin,		#IMPORTANT#
		alpha = ex.alpha		#IMPORTANT#
		) 		#
#
###########################################################
# P2 = expanded plot ######################################
###########################################################
#
p2 = ggplot(data, aes(d, (value-1)*2+1, colour = L1)) + #
	geom_line() +#
	scale_colour_manual(values = cols, labels=c("P+Q","upper bound","lower bound 1","lower bound 2","Pinsker")) +	#
	# Customise: Scales#
	coord_cartesian (xlim = x.expand, ylim = y.expand) +				#IMPORTANT#
	scale_x_continuous (name = F) +										#IMPORTANT#
	scale_y_continuous (name = F) +										#IMPORTANT#
	scale_fill_gradient (low = "yellow", high = "red", guide = F) +#
	#IMPORTANT - Appearance customisation#
	theme (#
		# Plot Attributes#
		plot.title = element_text (size= 10),										#IMPORTANT#
		plot.margin = unit (c(padt, padr, padb, padl), "lines"), #T, R, B, L		#IMPORTANT#
		plot.background = element_blank (), 										#IMPORTANT#
		# Panel Attributes	#
		panel.grid.major = element_blank (), 										# Removes major grid#
		panel.grid.minor = element_blank (),  										# Removes minor grid#
#		panel.background = element_rect (fill = ex.col),							#IMPORTANT#
		panel.border = element_rect (colour = ex.lin, fill = F, size = 0.5),		#IMPORTANT	#
		#Legend Attributes		#
		legend.position = "none",											#IMPORTANT#
		# Axis Attributes#
		axis.title.x = element_blank (),	#IMPORTANT#
		axis.title.y = element_blank (), 	#IMPORTANT#
		axis.text.x = element_blank (), 	#IMPORTANT#
		axis.text.y = element_blank (), 	#IMPORTANT#
		axis.ticks = element_blank ()		#IMPORTANT#
		)#
# Turn P2 into a grob that you can place in P1		#
p2 = ggplotGrob (p2)				#IMPORTANT#
#
# Add P2 into P1#
p1 + annotation_custom (grob = p2, xmin = xl, xmax = xh, ymin = yl, ymax = yh)
library(ggplot2)#
library(grid)#
library(scales)#
#
data = read.csv("constant.csv")#
cols <- c("black", "brown", "red", "blue", "gray")#
###################################################################################
###### CUSTOMISATION - Edit these variables to customise ##########################
##################################################################################	#
	# Text/Line/Fill Colours												#######
	colour.1 = "black"		# Text, outside plot area						#######
	colour.2 = "white"		# Fill, outside plot area						#######
	colour.3 = "white"		# Fill, plot area								#######
	colour.5 = "black"		# Text, inside plot area						#######
	colour.6 = "black"		# Outlines										#######
																			#######
	# Line Widths															#######
	lw.r = 1.1618			# Scaling ratio									#######
	lw.1 = 1.5				# Plot area										#######
	lw.2 = lw.1/(lw.r^7)	# Axis ticks									#######
	lw.3 = lw.1/(lw.r^8)	# Legend box									#######
																			#######
	# Font Sizes															#######
	fs.r = 1.1618				# Scaling ratio								#######
	fs.1 = 12					# Axis Labels								#######
	fs.2 = fs.1 * (fs.r^2)		# Axis title								#######
	fs.3 = fs.1 * (fs.r^3)		# Plot title								#######
	fs.4 = fs.1 / (fs.r^2)		# Legend									#######
	fs.5 = fs.1 / (fs.r^4)		# Legend title								#######
																			#######
	# Plot definitions														#######
	ar.1 = 1/1.1618				# Aspect ratio of the plot area				#######
	xlims = c(1.3,4)			# X Limits of the main plot					#######
	ylims = c(0,6)				# Y Limits of the main plot					#######
																			#######
	# Expanded view variables												#######
	zoom = 2					# The zoom level of the expand box			#######
	pad = 1						# Padding between exp box and plot box		#######
	ex.col = "white"			# Fill colour of expand boxes				#######
	ex.alpha = 0				# Turn to zero to turn off any colour		#######
	ex.lin = "black"			# Line colour of expand boxes				#######
	x.expand = c(2.5,3.5)		# Desired expand range (X)					#######
	y.expand = c(0.9, 1.8)		# Desired expand range (y)					#######
	j.expand = "tr"				# Select a corner to place exp box			#######
																			#######
###################################################################################
###################################################################################
###################################################################################
#
###########################################################
# DO NOT EDIT - Computation of expanded box coords ########
###########################################################
if (j.expand == "tr") {								#######
xl = xlims[2]-((x.expand[2]-x.expand[1])*zoom)		#######
xh = xlims[2]										#######
yl = ylims[2]-((y.expand[2]-y.expand[1])*zoom)		#######
yh = ylims[2]										#######
padl = -1											#######
padr = pad											#######
padt = pad											#######
padb = -1											#######
}													#######
													#######
if (j.expand == "bl") {								#######
xl = xlims[1]										#######
xh = xlims[1]+((x.expand[2]-x.expand[1])*zoom)		#######
yl = ylims[1]										#######
yh = ylims[1]+((y.expand[2]-y.expand[1])*zoom)		#######
padl = pad-1										#######
padr = -1											#######
padt = -1											#######
padb = pad-1										#######
}													#######
													#######
if (j.expand == "tl") {								#######
xl = xlims[1]										#######
xh = xlims[1]+((x.expand[2]-x.expand[1])*zoom)		#######
yl = ylims[2]-((y.expand[2]-y.expand[1])*zoom)		#######
yh = ylims[2]										#######
padl = pad-1										#######
padr = -1											#######
padt = pad											#######
padb = -1											#######
}													#######
													#######
if (j.expand == "br") {								#######
xl = xlims[2]-((x.expand[2]-x.expand[1])*zoom)		#######
xh = xlims[2]										#######
yl = ylims[1]										#######
yh = ylims[1]+((y.expand[2]-y.expand[1])*zoom)		#######
padl = -1											#######
padr = pad											#######
padt = -1											#######
padb = pad-1										#######
}													#######
###########################################################
###########################################################
###########################################################
###########################################################
# P1 = Main plot ##########################################
###########################################################
	# Define the plot#
p1 = ggplot(data, aes(d, value, colour = L1)) + #
	geom_line() +#
	scale_colour_manual(values = cols, labels=c("P+Q","upper bound","lower bound 1","lower bound 2","Pinsker")) +#
	scale_y_continuous(limits=c(0,6)) + scale_x_continuous(limits=c(1.3,4)) +#
	theme(legend.title=element_blank()) +#
	xlab("Quantization level d") + ylab("Leading constant value") +#
	# Highlight area for expand box#
	annotate ("rect", 			#IMPORTANT#
		xmin = x.expand[1], 	#IMPORTANT#
		xmax = x.expand[2], 	#IMPORTANT#
		ymin = y.expand[1], 	#IMPORTANT#
		ymax = y.expand[2], 	#IMPORTANT#
		fill = ex.col, 			#IMPORTANT#
		colour = ex.lin,		#IMPORTANT#
		alpha = ex.alpha		#IMPORTANT#
		) 		#
#
###########################################################
# P2 = expanded plot ######################################
###########################################################
#
p2 = ggplot(data, aes(d, (value-1)*2+1, colour = L1)) + #
	geom_line() +#
	scale_colour_manual(values = cols, labels=c("P+Q","upper bound","lower bound 1","lower bound 2","Pinsker")) +	#
	# Customise: Scales#
	coord_cartesian (xlim = x.expand, ylim = y.expand) +				#IMPORTANT#
	scale_x_continuous (name = F) +										#IMPORTANT#
	scale_y_continuous (name = F) +										#IMPORTANT#
	scale_fill_gradient (low = "yellow", high = "red", guide = F) +#
	#IMPORTANT - Appearance customisation#
	theme (#
		# Plot Attributes#
		plot.title = element_text (size= 10),										#IMPORTANT#
		plot.margin = unit (c(padt, padr, padb, padl), "lines"), #T, R, B, L		#IMPORTANT#
		plot.background = element_blank (), 										#IMPORTANT#
		# Panel Attributes	#
		panel.grid.major = element_blank (), 										# Removes major grid#
		panel.grid.minor = element_blank (),  										# Removes minor grid#
#		panel.background = element_rect (fill = ex.col),							#IMPORTANT#
		panel.border = element_rect (colour = ex.lin, fill = F, size = 0.5),		#IMPORTANT	#
		#Legend Attributes		#
		legend.position = "none",											#IMPORTANT#
		# Axis Attributes#
		axis.title.x = element_blank (),	#IMPORTANT#
		axis.title.y = element_blank (), 	#IMPORTANT#
		axis.text.x = element_blank (), 	#IMPORTANT#
		axis.text.y = element_blank (), 	#IMPORTANT#
		axis.ticks = element_blank ()		#IMPORTANT#
		)#
# Turn P2 into a grob that you can place in P1		#
p2 = ggplotGrob (p2)				#IMPORTANT#
#
# Add P2 into P1#
p1 + annotation_custom (grob = p2, xmin = xl, xmax = xh, ymin = yl, ymax = yh)
pdf("zoomin.pdf",height=4,width=8)#
p1 + annotation_custom (grob = p2, xmin = xl, xmax = xh, ymin = yl, ymax = yh)#
dev.off()
data
head(data)
plot(data$d[data$L1=="df1"],data$value[data$L1=="df1"])
plot(data$d[data$L1=="df1"],data$value[data$L1=="df1"],xlab="d",ylab="constant")
pdf(constant.pdf)
pdf("constant2.pdf",height=4,width=8)
plot(data$d[data$L1=="df1"],data$value[data$L1=="df1"],xlab="d",ylab="constant")
dev.off()
pdf("constant2.pdf",height=6,width=8)
plot(data$d[data$L1=="df1"],data$value[data$L1=="df1"],xlab="d",ylab="constant")
dev.off()
